<?xml version="1.0" encoding="UTF-8"?>
<model ref="r:749e0262-c211-48eb-932a-9a0f921d73cc(tutorial.__spreferences.TypeSizeConfiguration)">
  <persistence version="9" />
  <languages>
    <use id="61c69711-ed61-4850-81d9-7714ff227fb0" name="com.mbeddr.core.expressions" version="4" />
  </languages>
  <imports />
  <registry>
    <language id="61c69711-ed61-4850-81d9-7714ff227fb0" name="com.mbeddr.core.expressions">
      <concept id="8463282783691618456" name="com.mbeddr.core.expressions.structure.UnsignedInt64tType" flags="ng" index="26Vqp1" />
      <concept id="8463282783691618461" name="com.mbeddr.core.expressions.structure.UnsignedInt8tType" flags="ng" index="26Vqp4" />
      <concept id="8463282783691618450" name="com.mbeddr.core.expressions.structure.UnsignedInt32tType" flags="ng" index="26Vqpb" />
      <concept id="8463282783691618440" name="com.mbeddr.core.expressions.structure.Int32tType" flags="ng" index="26Vqph" />
      <concept id="8463282783691618445" name="com.mbeddr.core.expressions.structure.Int64tType" flags="ng" index="26Vqpk" />
      <concept id="8463282783691618435" name="com.mbeddr.core.expressions.structure.Int16tType" flags="ng" index="26Vqpq" />
      <concept id="8463282783691618466" name="com.mbeddr.core.expressions.structure.UnsignedInt16tType" flags="ng" index="26VqpV" />
      <concept id="8463282783691618471" name="com.mbeddr.core.expressions.structure.UnsignedLongLongType" flags="ng" index="26VqpY" />
      <concept id="8463282783691618426" name="com.mbeddr.core.expressions.structure.Int8tType" flags="ng" index="26Vqqz" />
      <concept id="8463282783691596316" name="com.mbeddr.core.expressions.structure.LongLongType" flags="ng" index="26VBN5" />
      <concept id="8463282783691596310" name="com.mbeddr.core.expressions.structure.UnsignedLongType" flags="ng" index="26VBNf" />
      <concept id="8463282783691492730" name="com.mbeddr.core.expressions.structure.UnsignedIntType" flags="ng" index="26VXez" />
      <concept id="8463282783691492716" name="com.mbeddr.core.expressions.structure.UnsignedCharType" flags="ng" index="26VXeP" />
      <concept id="8864856114140038681" name="com.mbeddr.core.expressions.structure.DoubleType" flags="ng" index="2fgwQN" />
      <concept id="9149785691755093694" name="com.mbeddr.core.expressions.structure.IEEE754TypeSizeSpecification" flags="ng" index="2mYgW_">
        <property id="9149785691755093695" name="exists" index="2mYgW$" />
        <child id="9149785691755093698" name="ieee754Type" index="2mYgXp" />
        <child id="9149785691755093697" name="basicType" index="2mYgXq" />
      </concept>
      <concept id="9149785691754701072" name="com.mbeddr.core.expressions.structure.LongDoubleType" flags="ng" index="2p1N2b" />
      <concept id="595416243537320771" name="com.mbeddr.core.expressions.structure.UnsignedShortType" flags="ng" index="LMkMC" />
      <concept id="3335993110369949928" name="com.mbeddr.core.expressions.structure.ShortType" flags="ng" index="MySNB" />
      <concept id="3335993110369795381" name="com.mbeddr.core.expressions.structure.TypeSizeSpecification" flags="ng" index="MXy$U">
        <property id="3335993110370236888" name="exists" index="MzQRn" />
        <child id="7496733358578231499" name="c99Type" index="15Utue" />
        <child id="7496733358578231498" name="basicType" index="15Utuf" />
      </concept>
      <concept id="3335993110369795380" name="com.mbeddr.core.expressions.structure.TypeSizeConfiguration" flags="ng" index="MXy$V">
        <child id="9149785691755067704" name="ieee754Specifications" index="2mYqyz" />
        <child id="3335993110369805710" name="specifications" index="MXv61" />
        <child id="8863019357864392147" name="sizeTType" index="2O5j3Q" />
        <child id="3813668170744198630" name="pointerDiffType" index="3kxMGo" />
        <child id="7808382574383152989" name="intPtrType" index="3sasR9" />
        <child id="7808382574383153001" name="uintPtrType" index="3sasRX" />
        <child id="5598157691785092886" name="vaList" index="3EM3Bk" />
        <child id="6658270785788810330" name="minFloatValue" index="3LaRDq" />
        <child id="6658270785788810339" name="maxDoubleValue" index="3LaRDz" />
        <child id="6658270785788810349" name="minDoubleValue" index="3LaRDH" />
        <child id="6658270785788810029" name="maxFloatValue" index="3LaROH" />
      </concept>
      <concept id="3390250080473522603" name="com.mbeddr.core.expressions.structure.SignedCharType" flags="ng" index="1dkrvn" />
      <concept id="4739982148980385695" name="com.mbeddr.core.expressions.structure.FloatType" flags="ng" index="3AreGT" />
      <concept id="8860443239512128054" name="com.mbeddr.core.expressions.structure.Type" flags="ng" index="3TlMgo">
        <property id="2941277002445651368" name="const" index="2c7vTL" />
        <property id="2941277002448691247" name="volatile" index="2caQfQ" />
      </concept>
      <concept id="8860443239512128108" name="com.mbeddr.core.expressions.structure.IntType" flags="ng" index="3TlMh2" />
      <concept id="1670233242589902798" name="com.mbeddr.core.expressions.structure.ScientificNumber" flags="ng" index="3VGQI6">
        <property id="1670233242589904217" name="prefix" index="3VGQ4h" />
        <property id="1670233242589904219" name="postfix" index="3VGQ4j" />
      </concept>
      <concept id="86532984527104137" name="com.mbeddr.core.expressions.structure.LongType" flags="ng" index="1X9cn3" />
    </language>
  </registry>
  <node concept="MXy$V" id="113J0Fy2oLS">
    <node concept="26Vqpb" id="113J0Fy2oMF" role="3kxMGo">
      <property role="2caQfQ" value="false" />
      <property role="2c7vTL" value="false" />
    </node>
    <node concept="26Vqpb" id="113J0Fy2oMG" role="2O5j3Q">
      <property role="2caQfQ" value="false" />
      <property role="2c7vTL" value="false" />
    </node>
    <node concept="26Vqpb" id="113J0Fy2oMH" role="3EM3Bk">
      <property role="2caQfQ" value="false" />
      <property role="2c7vTL" value="false" />
    </node>
    <node concept="3VGQI6" id="113J0Fy2oMJ" role="3LaRDq">
      <property role="3VGQ4h" value="-1" />
      <property role="3VGQ4j" value="37" />
    </node>
    <node concept="3VGQI6" id="113J0Fy2oMK" role="3LaRDH">
      <property role="3VGQ4h" value="-1" />
      <property role="3VGQ4j" value="37" />
    </node>
    <node concept="3VGQI6" id="113J0Fy2oML" role="3LaROH">
      <property role="3VGQ4h" value="1" />
      <property role="3VGQ4j" value="37" />
    </node>
    <node concept="3VGQI6" id="113J0Fy2oMM" role="3LaRDz">
      <property role="3VGQ4h" value="1" />
      <property role="3VGQ4j" value="37" />
    </node>
    <node concept="MXy$U" id="113J0Fy2oMP" role="MXv61">
      <property role="MzQRn" value="true" />
      <node concept="1dkrvn" id="6v20K5acpVj" role="15Utuf">
        <property role="2caQfQ" value="false" />
        <property role="2c7vTL" value="false" />
      </node>
      <node concept="26Vqqz" id="113J0Fy2oMO" role="15Utue">
        <property role="2caQfQ" value="false" />
        <property role="2c7vTL" value="false" />
      </node>
    </node>
    <node concept="MXy$U" id="113J0Fy2oMS" role="MXv61">
      <property role="MzQRn" value="true" />
      <node concept="MySNB" id="113J0Fy2oMQ" role="15Utuf">
        <property role="2caQfQ" value="false" />
        <property role="2c7vTL" value="false" />
      </node>
      <node concept="26Vqpq" id="113J0Fy2oMR" role="15Utue">
        <property role="2caQfQ" value="false" />
        <property role="2c7vTL" value="false" />
      </node>
    </node>
    <node concept="MXy$U" id="113J0Fy2oMV" role="MXv61">
      <property role="MzQRn" value="true" />
      <node concept="3TlMh2" id="113J0Fy2oMT" role="15Utuf">
        <property role="2caQfQ" value="false" />
        <property role="2c7vTL" value="false" />
      </node>
      <node concept="26Vqph" id="113J0Fy2oMU" role="15Utue">
        <property role="2caQfQ" value="false" />
        <property role="2c7vTL" value="false" />
      </node>
    </node>
    <node concept="MXy$U" id="113J0Fy2oMY" role="MXv61">
      <property role="MzQRn" value="true" />
      <node concept="1X9cn3" id="113J0Fy2oMW" role="15Utuf">
        <property role="2caQfQ" value="false" />
        <property role="2c7vTL" value="false" />
      </node>
      <node concept="26Vqph" id="113J0Fy2oMX" role="15Utue">
        <property role="2caQfQ" value="false" />
        <property role="2c7vTL" value="false" />
      </node>
    </node>
    <node concept="MXy$U" id="113J0Fy2oN1" role="MXv61">
      <property role="MzQRn" value="true" />
      <node concept="26VBN5" id="113J0Fy2oMZ" role="15Utuf">
        <property role="2caQfQ" value="false" />
        <property role="2c7vTL" value="false" />
      </node>
      <node concept="26Vqpk" id="113J0Fy2oN0" role="15Utue">
        <property role="2caQfQ" value="false" />
        <property role="2c7vTL" value="false" />
      </node>
    </node>
    <node concept="MXy$U" id="113J0Fy2oN4" role="MXv61">
      <property role="MzQRn" value="true" />
      <node concept="26VXeP" id="113J0Fy2oN2" role="15Utuf">
        <property role="2caQfQ" value="false" />
        <property role="2c7vTL" value="false" />
      </node>
      <node concept="26Vqp4" id="113J0Fy2oN3" role="15Utue">
        <property role="2caQfQ" value="false" />
        <property role="2c7vTL" value="false" />
      </node>
    </node>
    <node concept="MXy$U" id="113J0Fy2oN7" role="MXv61">
      <property role="MzQRn" value="true" />
      <node concept="LMkMC" id="113J0Fy2oN5" role="15Utuf">
        <property role="2caQfQ" value="false" />
        <property role="2c7vTL" value="false" />
      </node>
      <node concept="26VqpV" id="113J0Fy2oN6" role="15Utue">
        <property role="2caQfQ" value="false" />
        <property role="2c7vTL" value="false" />
      </node>
    </node>
    <node concept="MXy$U" id="113J0Fy2oNa" role="MXv61">
      <property role="MzQRn" value="true" />
      <node concept="26VXez" id="113J0Fy2oN8" role="15Utuf">
        <property role="2caQfQ" value="false" />
        <property role="2c7vTL" value="false" />
      </node>
      <node concept="26Vqpb" id="113J0Fy2oN9" role="15Utue">
        <property role="2caQfQ" value="false" />
        <property role="2c7vTL" value="false" />
      </node>
    </node>
    <node concept="MXy$U" id="113J0Fy2oNd" role="MXv61">
      <property role="MzQRn" value="true" />
      <node concept="26VBNf" id="113J0Fy2oNb" role="15Utuf">
        <property role="2caQfQ" value="false" />
        <property role="2c7vTL" value="false" />
      </node>
      <node concept="26Vqpb" id="113J0Fy2oNc" role="15Utue">
        <property role="2caQfQ" value="false" />
        <property role="2c7vTL" value="false" />
      </node>
    </node>
    <node concept="MXy$U" id="113J0Fy2oNg" role="MXv61">
      <property role="MzQRn" value="true" />
      <node concept="26VqpY" id="113J0Fy2oNe" role="15Utuf">
        <property role="2caQfQ" value="false" />
        <property role="2c7vTL" value="false" />
      </node>
      <node concept="26Vqp1" id="113J0Fy2oNf" role="15Utue">
        <property role="2caQfQ" value="false" />
        <property role="2c7vTL" value="false" />
      </node>
    </node>
    <node concept="2mYgW_" id="113J0Fy2oNj" role="2mYqyz">
      <property role="2mYgW$" value="true" />
      <node concept="3AreGT" id="113J0Fy2oNh" role="2mYgXq">
        <property role="2caQfQ" value="false" />
        <property role="2c7vTL" value="false" />
      </node>
      <node concept="3AreGT" id="113J0Fy2oNi" role="2mYgXp">
        <property role="2caQfQ" value="false" />
        <property role="2c7vTL" value="false" />
      </node>
    </node>
    <node concept="2mYgW_" id="113J0Fy2oNm" role="2mYqyz">
      <property role="2mYgW$" value="true" />
      <node concept="2fgwQN" id="113J0Fy2oNk" role="2mYgXq">
        <property role="2caQfQ" value="false" />
        <property role="2c7vTL" value="false" />
      </node>
      <node concept="2fgwQN" id="113J0Fy2oNl" role="2mYgXp">
        <property role="2caQfQ" value="false" />
        <property role="2c7vTL" value="false" />
      </node>
    </node>
    <node concept="2mYgW_" id="113J0Fy2oNp" role="2mYqyz">
      <property role="2mYgW$" value="true" />
      <node concept="2p1N2b" id="113J0Fy2oNn" role="2mYgXq">
        <property role="2caQfQ" value="false" />
        <property role="2c7vTL" value="false" />
      </node>
      <node concept="2p1N2b" id="113J0Fy2oNo" role="2mYgXp">
        <property role="2caQfQ" value="false" />
        <property role="2c7vTL" value="false" />
      </node>
    </node>
    <node concept="1X9cn3" id="36cijvuamyx" role="3sasR9">
      <property role="2caQfQ" value="false" />
      <property role="2c7vTL" value="false" />
    </node>
    <node concept="26VBNf" id="36cijvuam$0" role="3sasRX">
      <property role="2caQfQ" value="false" />
      <property role="2c7vTL" value="false" />
    </node>
  </node>
</model>

