<?xml version="1.0" encoding="UTF-8"?>
<model ref="r:b87b2199-3bb2-4910-ab2b-d9c271d4da1c(tutorial.__spreferences.CodeReviewPreferences)">
  <persistence version="9" />
  <languages>
    <use id="d4280a54-f6df-4383-aa41-d1b2bffa7eb1" name="com.mbeddr.core.base" version="5" />
    <use id="7d323e61-8358-4656-a071-a2bb68438615" name="com.mbeddr.core.codereview" version="0" />
  </languages>
  <imports />
  <registry>
    <language id="7d323e61-8358-4656-a071-a2bb68438615" name="com.mbeddr.core.codereview">
      <concept id="293752265167076767" name="com.mbeddr.core.codereview.structure.CodeReviewConfig" flags="ng" index="3Xb6eZ" />
    </language>
  </registry>
  <node concept="3Xb6eZ" id="113J0Fy2oLR" />
</model>

